-qiC2t%Pns2u1%s%uN0%I0p3DaK0H0%kf2A100000%f#f -F "Mozilla/4.5 (compatible; HTTrack 3.0x; Windows 98)" -%F "<!-- Mirrored from %s%s by HTTrack Website Copier/3.x [XR&CO'2014], %s -->" -%l "en, *" https://help.autodesk.com/cloudhelp/2018/ENU/Maya-Tech-Docs/CommandsPython/index.html -O1 "G:\DEV\git\personalScripting\maya\commandReference\mayaPythonCommandReference" +*.css +*.js -ad.doubleclick.net/* -mime:application/foobar +*.gif +*.jpg +*.jpeg +*.png +*.tif +*.bmp +*.zip +*.tar +*.tgz +*.gz +*.rar +*.z +*.exe +*.mov +*.mpg +*.mpeg +*.avi +*.asf +*.mp3 +*.mp2 +*.rm +*.wav +*.vob +*.qt +*.vid +*.ac3 +*.wma +*.wmv
File generated automatically on Sun, 13 May 2018 19:53:35, do NOT edit

To update a mirror, just launch httrack without any parameters
The existing cache will be used (and modified)
To have other options, retype all parameters and launch HTTrack
To continue an interrupted mirror, just launch httrack without any parameters

