[help.autodesk.com/cloudhelp/2018/ENU/Maya-Tech-Docs/CommandsPython/index.html]
[backblue.gif]
[fade.gif]
[index.html]
[help.autodesk.com/cloudhelp/2018/ENU/Maya-Tech-Docs/CommandsPython/index.html]
